{
    "title":"Anzahl der verschiedenen Dokumenttypen",
    "data":[
        {
        "Name": "PlMngt",
        "Anzahl": 30566
    },
    {
        "Name": "DokMngt",
        "Anzahl": 6286
    },
    {
        "Name": "Gewährleistungs-MMngt",
        "Anzahl": 3482
    },
    {
        "Name": "FotDok",
        "Anzahl": 572
    },
    {
        "Name": "BIM Modell",
        "Anzahl": 75
    },
    {
        "Name": "Ausführungs-MMngt",
        "Anzahl": 46
    }
    
    
],
"colors":[   
   { "color": "#8D8D8D"},
    {  "color": "#800022"},
    { "color": "#A60031"},
    {  "color": "#DE000E"},
    { "color": "#686868"},
    {  "color": "#6A0320"},
    { "color": "#4B4B4B"}
 


 ]
}