{
  "navigation": [
    {
      "title": "Home",
      "icon": "sap-icon://home",
      "expanded": true,
      "key": "home",
      "items": []
    },
    {
      "title": "Projects",
      "icon": "sap-icon://capital-projects",
      "expanded": true,
      "items": [
        {
          "title": "All projects",
          "icon": "sap-icon://list",
          "expanded": false,
          "key": "projects",
          "items": []
        }
      ]
    }
  ],
  "fixedNavigation": [
    {
      "title": "thinkproject! REST API",
      "icon": "sap-icon://home",
      "expanded": true,
      "key": "tpapidoc",
      "items": []
    }
  ]
}